%YAML 1.1
%TAG !u! tag:unity3d.com,2011:
--- !u!21 &2100000
Material:
  serializedVersion: 3
  m_ObjectHideFlags: 0
  m_PrefabParentObject: {fileID: 0}
  m_PrefabInternal: {fileID: 0}
  m_Name: IceTowerMat
  m_Shader: {fileID: 4, guid: 0000000000000000f000000000000000, type: 0}
  m_ShaderKeywords: []
  m_CustomRenderQueue: -1
  m_SavedProperties:
    serializedVersion: 2
    m_TexEnvs:
      data:
        first:
          name: _MainTex
        second:
          m_Texture: {fileID: 0}
          m_Scale: {x: 1, y: 1}
          m_Offset: {x: 0, y: 0}
      data:
        first:
          name: _BumpMap
        second:
          m_Texture: {fileID: 0}
          m_Scale: {x: 1, y: 1}
          m_Offset: {x: 0, y: 0}
    m_Floats:
      data:
        first:
          name: _Shininess
        second: .078125
    m_Colors:
      data:
        first:
          name: _Color
        second: {r: .469669133, g: .489236861, b: .875, a: 1}
      data:
        first:
          name: _SpecColor
        second: {r: .851427317, g: .856836855, b: .911764681, a: 1}
